%YAML 1.1
%TAG !u! tag:unity3d.com,2011:
--- !u!74 &7400000
AnimationClip:
  m_ObjectHideFlags: 0
  m_CorrespondingSourceObject: {fileID: 0}
  m_PrefabInstance: {fileID: 0}
  m_PrefabAsset: {fileID: 0}
  m_Name: Knife_Taking
  serializedVersion: 6
  m_Legacy: 0
  m_Compressed: 0
  m_UseHighQualityCurve: 1
  m_RotationCurves:
  - curve:
      serializedVersion: 2
      m_Curve:
      - serializedVersion: 3
        time: 0
        value: {x: -0.7071068, y: 0, z: -0, w: 0.7071067}
        inSlope: {x: 0, y: 0, z: 0, w: 0}
        outSlope: {x: 0, y: 0, z: 0, w: 0}
        tangentMode: 0
        weightedMode: 0
        inWeight: {x: 0.33333334, y: 0.33333334, z: 0.33333334, w: 0.33333334}
        outWeight: {x: 0.33333334, y: 0.33333334, z: 0.33333334, w: 0.33333334}
      - serializedVersion: 3
        time: 0.9333334
        value: {x: -0.7071068, y: 0, z: -0, w: 0.7071067}
        inSlope: {x: 0, y: 0, z: 0, w: 0}
        outSlope: {x: 0, y: 0, z: 0, w: 0}
        tangentMode: 0
        weightedMode: 0
        inWeight: {x: 0.33333334, y: 0.33333334, z: 0.33333334, w: 0.33333334}
        outWeight: {x: 0.33333334, y: 0.33333334, z: 0.33333334, w: 0.33333334}
      m_PreInfinity: 2
      m_PostInfinity: 2
      m_RotationOrder: 4
    path: Knife
  - curve:
      serializedVersion: 2
      m_Curve:
      - serializedVersion: 3
        time: 0
        value: {x: 0.2845868, y: 0.810888, z: -0.50290155, w: -0.09252632}
        inSlope: {x: -1.0698804, y: -0.073649876, z: -0.7987564, w: 0.86087215}
        outSlope: {x: -1.0698804, y: -0.073649876, z: -0.7987564, w: 0.86087215}
        tangentMode: 0
        weightedMode: 0
        inWeight: {x: 0.33333334, y: 0.33333334, z: 0.33333334, w: 0.33333334}
        outWeight: {x: 0.33333334, y: 0.33333334, z: 0.33333334, w: 0.33333334}
      - serializedVersion: 3
        time: 0.033333335
        value: {x: 0.2489241, y: 0.808433, z: -0.52952677, w: -0.06383058}
        inSlope: {x: -1.0652953, y: -0.07086575, z: -0.6400224, w: 0.1470569}
        outSlope: {x: -1.0652953, y: -0.07086575, z: -0.6400224, w: 0.1470569}
        tangentMode: 0
        weightedMode: 0
        inWeight: {x: 0.33333334, y: 0.33333334, z: 0.33333334, w: 0.33333334}
        outWeight: {x: 0.33333334, y: 0.33333334, z: 0.33333334, w: 0.33333334}
      - serializedVersion: 3
        time: 0.06666667
        value: {x: 0.2135671, y: 0.8061636, z: -0.5455697, w: -0.08272252}
        inSlope: {x: -0.8643661, y: -0.3742754, z: -0.8027716, w: -0.51377296}
        outSlope: {x: -0.8643661, y: -0.3742754, z: -0.8027716, w: -0.51377296}
        tangentMode: 0
        weightedMode: 0
        inWeight: {x: 0.33333334, y: 0.33333334, z: 0.33333334, w: 0.33333334}
        outWeight: {x: 0.33333334, y: 0.33333334, z: 0.33333334, w: 0.33333334}
      - serializedVersion: 3
        time: 0.13333334
        value: {x: 0.1793619, y: 0.73695624, z: -0.64216316, w: -0.11113665}
        inSlope: {x: -0.23687617, y: -1.8780123, z: -2.0805137, w: -0.36262283}
        outSlope: {x: -0.23687617, y: -1.8780123, z: -2.0805137, w: -0.36262283}
        tangentMode: 0
        weightedMode: 0
        inWeight: {x: 0.33333334, y: 0.33333334, z: 0.33333334, w: 0.33333334}
        outWeight: {x: 0.33333334, y: 0.33333334, z: 0.33333334, w: 0.33333334}
      - serializedVersion: 3
        time: 0.20000002
        value: {x: 0.17699641, y: 0.53595203, z: -0.8150629, w: -0.13076773}
        inSlope: {x: 0.06117738, y: -4.4376726, z: -2.7418957, w: -0.18967885}
        outSlope: {x: 0.06117738, y: -4.4376726, z: -2.7418957, w: -0.18967885}
        tangentMode: 0
        weightedMode: 0
        inWeight: {x: 0.33333334, y: 0.33333334, z: 0.33333334, w: 0.33333334}
        outWeight: {x: 0.33333334, y: 0.33333334, z: 0.33333334, w: 0.33333334}
      - serializedVersion: 3
        time: 0.23333335
        value: {x: 0.17958644, y: 0.3624356, z: -0.90453887, w: -0.13490222}
        inSlope: {x: 0.014736952, y: -5.813449, z: -2.2288418, w: -0.0328926}
        outSlope: {x: 0.014736952, y: -5.813449, z: -2.2288418, w: -0.0328926}
        tangentMode: 0
        weightedMode: 0
        inWeight: {x: 0.33333334, y: 0.33333334, z: 0.33333334, w: 0.33333334}
        outWeight: {x: 0.33333334, y: 0.33333334, z: 0.33333334, w: 0.33333334}
      - serializedVersion: 3
        time: 0.26666668
        value: {x: 0.17797887, y: 0.14838879, z: -0.9636523, w: -0.13296057}
        inSlope: {x: -0.1604482, y: -6.512433, z: -1.0560832, w: 0.13716997}
        outSlope: {x: -0.1604482, y: -6.512433, z: -1.0560832, w: 0.13716997}
        tangentMode: 0
        weightedMode: 0
        inWeight: {x: 0.33333334, y: 0.33333334, z: 0.33333334, w: 0.33333334}
        outWeight: {x: 0.33333334, y: 0.33333334, z: 0.33333334, w: 0.33333334}
      - serializedVersion: 3
        time: 0.3
        value: {x: 0.1688899, y: -0.071726575, z: -0.9749444, w: -0.12575756}
        inSlope: {x: -0.3705613, y: -6.1388, z: 0.26625842, w: 0.2370095}
        outSlope: {x: -0.3705613, y: -6.1388, z: 0.26625842, w: 0.2370095}
        tangentMode: 0
        weightedMode: 0
        inWeight: {x: 0.33333334, y: 0.33333334, z: 0.33333334, w: 0.33333334}
        outWeight: {x: 0.33333334, y: 0.33333334, z: 0.33333334, w: 0.33333334}
      - serializedVersion: 3
        time: 0.36666667
        value: {x: 0.13409175, y: -0.4028632, z: -0.8984998, w: -0.11143935}
        inSlope: {x: -0.6002825, y: -3.5951626, z: 1.4232261, w: 0.08735184}
        outSlope: {x: -0.6002825, y: -3.5951626, z: 1.4232261, w: 0.08735184}
        tangentMode: 0
        weightedMode: 0
        inWeight: {x: 0.33333334, y: 0.33333334, z: 0.33333334, w: 0.33333334}
        outWeight: {x: 0.33333334, y: 0.33333334, z: 0.33333334, w: 0.33333334}
      - serializedVersion: 3
        time: 0.43333337
        value: {x: 0.09092776, y: -0.5628787, z: -0.8129469, w: -0.11839324}
        inSlope: {x: -0.7095457, y: -1.4514229, z: 0.94546807, w: -0.33974716}
        outSlope: {x: -0.7095457, y: -1.4514229, z: 0.94546807, w: -0.33974716}
        tangentMode: 0
        weightedMode: 0
        inWeight: {x: 0.33333334, y: 0.33333334, z: 0.33333334, w: 0.33333334}
        outWeight: {x: 0.33333334, y: 0.33333334, z: 0.33333334, w: 0.33333334}
      - serializedVersion: 3
        time: 0.4666667
        value: {x: 0.0659529, y: -0.5973036, z: -0.7879888, w: -0.1339863}
        inSlope: {x: -0.8219817, y: -0.66456753, z: 0.5330213, w: -0.62661046}
        outSlope: {x: -0.8219817, y: -0.66456753, z: 0.5330213, w: -0.62661046}
        tangentMode: 0
        weightedMode: 0
        inWeight: {x: 0.33333334, y: 0.33333334, z: 0.33333334, w: 0.33333334}
        outWeight: {x: 0.33333334, y: 0.33333334, z: 0.33333334, w: 0.33333334}
      - serializedVersion: 3
        time: 0.5
        value: {x: 0.036129005, y: -0.6071832, z: -0.7774122, w: -0.16016725}
        inSlope: {x: -1.0951582, y: 0.7318426, z: 0.5411963, w: -3.4752727}
        outSlope: {x: -1.0951582, y: 0.7318426, z: 0.5411963, w: -3.4752727}
        tangentMode: 0
        weightedMode: 0
        inWeight: {x: 0.33333334, y: 0.33333334, z: 0.33333334, w: 0.33333334}
        outWeight: {x: 0.33333334, y: 0.33333334, z: 0.33333334, w: 0.33333334}
      - serializedVersion: 3
        time: 0.53333336
        value: {x: -0.0070576575, y: -0.54851407, z: -0.751909, w: -0.36567128}
        inSlope: {x: -1.0233414, y: 2.0862553, z: 1.1978825, w: -5.7206826}
        outSlope: {x: -1.0233414, y: 2.0862553, z: 1.1978825, w: -5.7206826}
        tangentMode: 0
        weightedMode: 0
        inWeight: {x: 0.33333334, y: 0.33333334, z: 0.33333334, w: 0.33333334}
        outWeight: {x: 0.33333334, y: 0.33333334, z: 0.33333334, w: 0.33333334}
      - serializedVersion: 3
        time: 0.5666667
        value: {x: -0.032093808, y: -0.46809942, z: -0.6975533, w: -0.5415464}
        inSlope: {x: -0.44090495, y: 1.2481726, z: 0.8139407, w: -2.668289}
        outSlope: {x: -0.44090495, y: 1.2481726, z: 0.8139407, w: -2.668289}
        tangentMode: 0
        weightedMode: 0
        inWeight: {x: 0.33333334, y: 0.33333334, z: 0.33333334, w: 0.33333334}
        outWeight: {x: 0.33333334, y: 0.33333334, z: 0.33333334, w: 0.33333334}
      - serializedVersion: 3
        time: 0.6
        value: {x: -0.036451336, y: -0.4653025, z: -0.69764626, w: -0.54355735}
        inSlope: {x: -0.3962212, y: 0.1752662, z: 0.038586225, w: -0.1644068}
        outSlope: {x: -0.3962212, y: 0.1752662, z: 0.038586225, w: -0.1644068}
        tangentMode: 0
        weightedMode: 0
        inWeight: {x: 0.33333334, y: 0.33333334, z: 0.33333334, w: 0.33333334}
        outWeight: {x: 0.33333334, y: 0.33333334, z: 0.33333334, w: 0.33333334}
      - serializedVersion: 3
        time: 0.6666667
        value: {x: -0.102167115, y: -0.43724006, z: -0.68901724, w: -0.56889224}
        inSlope: {x: -1.5649378, y: 0.6606133, z: 0.259391, w: -0.5123029}
        outSlope: {x: -1.5649378, y: 0.6606133, z: 0.259391, w: -0.5123029}
        tangentMode: 0
        weightedMode: 0
        inWeight: {x: 0.33333334, y: 0.33333334, z: 0.33333334, w: 0.33333334}
        outWeight: {x: 0.33333334, y: 0.33333334, z: 0.33333334, w: 0.33333334}
      - serializedVersion: 3
        time: 0.73333335
        value: {x: -0.2233014, y: -0.39150995, z: -0.6639532, w: -0.59667635}
        inSlope: {x: -1.4649713, y: 0.3479981, z: 0.3249676, w: -0.07820448}
        outSlope: {x: -1.4649713, y: 0.3479981, z: 0.3249676, w: -0.07820448}
        tangentMode: 0
        weightedMode: 0
        inWeight: {x: 0.33333334, y: 0.33333334, z: 0.33333334, w: 0.33333334}
        outWeight: {x: 0.33333334, y: 0.33333334, z: 0.33333334, w: 0.33333334}
      - serializedVersion: 3
        time: 0.8000001
        value: {x: -0.26271316, y: -0.41559392, z: -0.65951407, w: -0.56859887}
        inSlope: {x: 0.2883528, y: -1.0782099, z: -0.19079456, w: 0.9126263}
        outSlope: {x: 0.2883528, y: -1.0782099, z: -0.19079456, w: 0.9126263}
        tangentMode: 0
        weightedMode: 0
        inWeight: {x: 0.33333334, y: 0.33333334, z: 0.33333334, w: 0.33333334}
        outWeight: {x: 0.33333334, y: 0.33333334, z: 0.33333334, w: 0.33333334}
      - serializedVersion: 3
        time: 0.86666673
        value: {x: -0.20858493, y: -0.50919205, z: -0.67725545, w: -0.48840657}
        inSlope: {x: 0.94044304, y: -1.2711806, z: -0.19871143, w: 1.1723056}
        outSlope: {x: 0.94044304, y: -1.2711806, z: -0.19871143, w: 1.1723056}
        tangentMode: 0
        weightedMode: 0
        inWeight: {x: 0.33333334, y: 0.33333334, z: 0.33333334, w: 0.33333334}
        outWeight: {x: 0.33333334, y: 0.33333334, z: 0.33333334, w: 0.33333334}
      - serializedVersion: 3
        time: 0.90000004
        value: {x: -0.17858279, y: -0.54580027, z: -0.6819907, w: -0.45287856}
        inSlope: {x: 0.64608294, y: -0.7642681, z: -0.0911889, w: 0.7551615}
        outSlope: {x: 0.64608294, y: -0.7642681, z: -0.0911889, w: 0.7551615}
        tangentMode: 0
        weightedMode: 0
        inWeight: {x: 0.33333334, y: 0.33333334, z: 0.33333334, w: 0.33333334}
        outWeight: {x: 0.33333334, y: 0.33333334, z: 0.33333334, w: 0.33333334}
      - serializedVersion: 3
        time: 0.9333334
        value: {x: -0.16551276, y: -0.56014323, z: -0.6833347, w: -0.4380625}
        inSlope: {x: 0.39210063, y: -0.43028855, z: -0.04032072, w: 0.4444819}
        outSlope: {x: 0.39210063, y: -0.43028855, z: -0.04032072, w: 0.4444819}
        tangentMode: 0
        weightedMode: 0
        inWeight: {x: 0.33333334, y: 0.33333334, z: 0.33333334, w: 0.33333334}
        outWeight: {x: 0.33333334, y: 0.33333334, z: 0.33333334, w: 0.33333334}
      m_PreInfinity: 2
      m_PostInfinity: 2
      m_RotationOrder: 4
    path: Knife/Bone
  m_CompressedRotationCurves: []
  m_EulerCurves: []
  m_PositionCurves:
  - curve:
      serializedVersion: 2
      m_Curve:
      - serializedVersion: 3
        time: 0
        value: {x: -0, y: 0, z: 0}
        inSlope: {x: 0, y: 0, z: 0}
        outSlope: {x: 0, y: 0, z: 0}
        tangentMode: 0
        weightedMode: 0
        inWeight: {x: 0.33333334, y: 0.33333334, z: 0.33333334}
        outWeight: {x: 0.33333334, y: 0.33333334, z: 0.33333334}
      - serializedVersion: 3
        time: 0.93333334
        value: {x: -0, y: 0, z: 0}
        inSlope: {x: 0, y: 0, z: 0}
        outSlope: {x: 0, y: 0, z: 0}
        tangentMode: 0
        weightedMode: 0
        inWeight: {x: 0.33333334, y: 0.33333334, z: 0.33333334}
        outWeight: {x: 0.33333334, y: 0.33333334, z: 0.33333334}
      m_PreInfinity: 2
      m_PostInfinity: 2
      m_RotationOrder: 4
    path: Knife
  - curve:
      serializedVersion: 2
      m_Curve:
      - serializedVersion: 3
        time: 0
        value: {x: 0.25750193, y: -0.9834531, z: -0.42385128}
        inSlope: {x: 0.15446147, y: -0.9988448, z: 1.8532687}
        outSlope: {x: 0.15446147, y: -0.9988448, z: 1.8532687}
        tangentMode: 0
        weightedMode: 0
        inWeight: {x: 0.33333334, y: 0.33333334, z: 0.33333334}
        outWeight: {x: 0.33333334, y: 0.33333334, z: 0.33333334}
      - serializedVersion: 3
        time: 0.033333335
        value: {x: 0.26265067, y: -1.016748, z: -0.36207566}
        inSlope: {x: 0.15446147, y: -0.9988448, z: 1.8532687}
        outSlope: {x: -0.017952917, y: -1.1894736, z: 1.5251094}
        tangentMode: 0
        weightedMode: 0
        inWeight: {x: 0.33333334, y: 0.33333334, z: 0.33333334}
        outWeight: {x: 0.33333334, y: 0.33333334, z: 0.33333334}
      - serializedVersion: 3
        time: 0.06666667
        value: {x: 0.26205224, y: -1.0563971, z: -0.31123868}
        inSlope: {x: -0.017952917, y: -1.1894736, z: 1.5251094}
        outSlope: {x: -0.05157452, y: -1.0198609, z: 1.2325333}
        tangentMode: 0
        weightedMode: 0
        inWeight: {x: 0.33333334, y: 0.33333334, z: 0.33333334}
        outWeight: {x: 0.33333334, y: 0.33333334, z: 0.33333334}
      - serializedVersion: 3
        time: 0.1
        value: {x: 0.26033306, y: -1.0903925, z: -0.2701542}
        inSlope: {x: -0.05157452, y: -1.0198609, z: 1.2325333}
        outSlope: {x: -0.08176917, y: -0.86329174, z: 0.97602576}
        tangentMode: 0
        weightedMode: 0
        inWeight: {x: 0.33333334, y: 0.33333334, z: 0.33333334}
        outWeight: {x: 0.33333334, y: 0.33333334, z: 0.33333334}
      - serializedVersion: 3
        time: 0.13333334
        value: {x: 0.25760743, y: -1.1191689, z: -0.23762003}
        inSlope: {x: -0.08176917, y: -0.86329174, z: 0.97602576}
        outSlope: {x: -0.10853806, y: -0.71977395, z: 0.7555853}
        tangentMode: 0
        weightedMode: 0
        inWeight: {x: 0.33333334, y: 0.33333334, z: 0.33333334}
        outWeight: {x: 0.33333334, y: 0.33333334, z: 0.33333334}
      - serializedVersion: 3
        time: 0.16666667
        value: {x: 0.2539895, y: -1.1431613, z: -0.21243384}
        inSlope: {x: -0.10853806, y: -0.71977395, z: 0.7555853}
        outSlope: {x: -0.13187943, y: -0.5892998, z: 0.5712147}
        tangentMode: 0
        weightedMode: 0
        inWeight: {x: 0.33333334, y: 0.33333334, z: 0.33333334}
        outWeight: {x: 0.33333334, y: 0.33333334, z: 0.33333334}
      - serializedVersion: 3
        time: 0.2
        value: {x: 0.24959353, y: -1.1628046, z: -0.19339336}
        inSlope: {x: -0.13187943, y: -0.5892998, z: 0.5712147}
        outSlope: {x: -0.15179443, y: -0.47187427, z: 0.42291185}
        tangentMode: 0
        weightedMode: 0
        inWeight: {x: 0.33333334, y: 0.33333334, z: 0.33333334}
        outWeight: {x: 0.33333334, y: 0.33333334, z: 0.33333334}
      - serializedVersion: 3
        time: 0.23333333
        value: {x: 0.2445337, y: -1.1785338, z: -0.1792963}
        inSlope: {x: -0.15179443, y: -0.47187427, z: 0.42291185}
        outSlope: {x: -0.16828245, y: -0.36749253, z: 0.31067607}
        tangentMode: 0
        weightedMode: 0
        inWeight: {x: 0.33333334, y: 0.33333334, z: 0.33333334}
        outWeight: {x: 0.33333334, y: 0.33333334, z: 0.33333334}
      - serializedVersion: 3
        time: 0.33333334
        value: {x: 0.22651348, y: -1.2065852, z: -0.15464301}
        inSlope: {x: -0.19097959, y: -0.19788438, z: 0.1944111}
        outSlope: {x: -0.19718915, y: -0.13264619, z: 0.19038336}
        tangentMode: 0
        weightedMode: 0
        inWeight: {x: 0.33333334, y: 0.33333334, z: 0.33333334}
        outWeight: {x: 0.33333334, y: 0.33333334, z: 0.33333334}
      - serializedVersion: 3
        time: 0.4
        value: {x: 0.21327484, y: -1.2136887, z: -0.14088286}
        inSlope: {x: -0.19997007, y: -0.08045884, z: 0.2224211}
        outSlope: {x: -0.19932519, y: -0.019571686, z: 0.2905289}
        tangentMode: 0
        weightedMode: 0
        inWeight: {x: 0.33333334, y: 0.33333334, z: 0.33333334}
        outWeight: {x: 0.33333334, y: 0.33333334, z: 0.33333334}
      - serializedVersion: 3
        time: 0.43333334
        value: {x: 0.20663066, y: -1.214341, z: -0.13119857}
        inSlope: {x: -0.19932519, y: -0.019571686, z: 0.2905289}
        outSlope: {x: -0.19525453, y: -0.019573975, z: 0.39470103}
        tangentMode: 0
        weightedMode: 0
        inWeight: {x: 0.33333334, y: 0.33333334, z: 0.33333334}
        outWeight: {x: 0.33333334, y: 0.33333334, z: 0.33333334}
      - serializedVersion: 3
        time: 0.46666667
        value: {x: 0.20012218, y: -1.2149936, z: -0.11804187}
        inSlope: {x: -0.19525453, y: -0.019573975, z: 0.39470103}
        outSlope: {x: -0.18775694, y: -0.019571686, z: 0.53494895}
        tangentMode: 0
        weightedMode: 0
        inWeight: {x: 0.33333334, y: 0.33333334, z: 0.33333334}
        outWeight: {x: 0.33333334, y: 0.33333334, z: 0.33333334}
      - serializedVersion: 3
        time: 0.5
        value: {x: 0.19386362, y: -1.2156459, z: -0.10021024}
        inSlope: {x: -0.18775694, y: -0.019571686, z: 0.53494895}
        outSlope: {x: -0.2012602, y: 0.20172025, z: 0.62443733}
        tangentMode: 0
        weightedMode: 0
        inWeight: {x: 0.33333334, y: 0.33333334, z: 0.33333334}
        outWeight: {x: 0.33333334, y: 0.33333334, z: 0.33333334}
      - serializedVersion: 3
        time: 0.53333336
        value: {x: 0.18715493, y: -1.2089219, z: -0.07939565}
        inSlope: {x: -0.2012602, y: 0.20172025, z: 0.62443733}
        outSlope: {x: -0.3334794, y: 0.51700795, z: 0.31589255}
        tangentMode: 0
        weightedMode: 0
        inWeight: {x: 0.33333334, y: 0.33333334, z: 0.33333334}
        outWeight: {x: 0.33333334, y: 0.33333334, z: 0.33333334}
      - serializedVersion: 3
        time: 0.56666666
        value: {x: 0.17603897, y: -1.1916883, z: -0.06886591}
        inSlope: {x: -0.3334794, y: 0.51700795, z: 0.31589255}
        outSlope: {x: -0.56554365, y: 0.7060953, z: -0.25602713}
        tangentMode: 0
        weightedMode: 0
        inWeight: {x: 0.33333334, y: 0.33333334, z: 0.33333334}
        outWeight: {x: 0.33333334, y: 0.33333334, z: 0.33333334}
      - serializedVersion: 3
        time: 0.6
        value: {x: 0.15718749, y: -1.1681519, z: -0.077400155}
        inSlope: {x: -0.56554365, y: 0.7060953, z: -0.25602713}
        outSlope: {x: -0.72426975, y: 0.79310375, z: -0.64006937}
        tangentMode: 0
        weightedMode: 0
        inWeight: {x: 0.33333334, y: 0.33333334, z: 0.33333334}
        outWeight: {x: 0.33333334, y: 0.33333334, z: 0.33333334}
      - serializedVersion: 3
        time: 0.6333333
        value: {x: 0.1330452, y: -1.141715, z: -0.09873578}
        inSlope: {x: -0.72426975, y: 0.79310375, z: -0.64006937}
        outSlope: {x: -0.7663553, y: 0.7840569, z: -0.8320889}
        tangentMode: 0
        weightedMode: 0
        inWeight: {x: 0.33333334, y: 0.33333334, z: 0.33333334}
        outWeight: {x: 0.33333334, y: 0.33333334, z: 0.33333334}
      - serializedVersion: 3
        time: 0.6666667
        value: {x: 0.107499994, y: -1.1155798, z: -0.1264721}
        inSlope: {x: -0.7663553, y: 0.7840569, z: -0.8320889}
        outSlope: {x: -0.691806, y: 0.6789625, z: -0.83209014}
        tangentMode: 0
        weightedMode: 0
        inWeight: {x: 0.33333334, y: 0.33333334, z: 0.33333334}
        outWeight: {x: 0.33333334, y: 0.33333334, z: 0.33333334}
      - serializedVersion: 3
        time: 0.7
        value: {x: 0.08443982, y: -1.0929477, z: -0.1542084}
        inSlope: {x: -0.691806, y: 0.6789625, z: -0.83209014}
        outSlope: {x: -0.5006171, y: 0.47781333, z: -0.64006805}
        tangentMode: 0
        weightedMode: 0
        inWeight: {x: 0.33333334, y: 0.33333334, z: 0.33333334}
        outWeight: {x: 0.33333334, y: 0.33333334, z: 0.33333334}
      - serializedVersion: 3
        time: 0.73333335
        value: {x: 0.06775257, y: -1.0770206, z: -0.17554402}
        inSlope: {x: -0.5006171, y: 0.47781333, z: -0.64006805}
        outSlope: {x: -0.19279194, y: 0.18061769, z: -0.25602803}
        tangentMode: 0
        weightedMode: 0
        inWeight: {x: 0.33333334, y: 0.33333334, z: 0.33333334}
        outWeight: {x: 0.33333334, y: 0.33333334, z: 0.33333334}
      - serializedVersion: 3
        time: 0.76666665
        value: {x: 0.06132618, y: -1.071, z: -0.18407829}
        inSlope: {x: -0.19279194, y: 0.18061769, z: -0.25602803}
        outSlope: {x: 0.60873765, y: -0.22952479, z: 0.054232936}
        tangentMode: 0
        weightedMode: 0
        inWeight: {x: 0.33333334, y: 0.33333334, z: 0.33333334}
        outWeight: {x: 0.33333334, y: 0.33333334, z: 0.33333334}
      - serializedVersion: 3
        time: 0.8
        value: {x: 0.08161745, y: -1.0786508, z: -0.18227053}
        inSlope: {x: 0.60873765, y: -0.22952479, z: 0.054232936}
        outSlope: {x: 1.4516075, y: -0.54732794, z: 0.12932637}
        tangentMode: 0
        weightedMode: 0
        inWeight: {x: 0.33333334, y: 0.33333334, z: 0.33333334}
        outWeight: {x: 0.33333334, y: 0.33333334, z: 0.33333334}
      - serializedVersion: 3
        time: 0.8333333
        value: {x: 0.13000432, y: -1.0968951, z: -0.17795965}
        inSlope: {x: 1.4516075, y: -0.54732794, z: 0.12932637}
        outSlope: {x: 1.7325599, y: -0.65326256, z: 0.15435606}
        tangentMode: 0
        weightedMode: 0
        inWeight: {x: 0.33333334, y: 0.33333334, z: 0.33333334}
        outWeight: {x: 0.33333334, y: 0.33333334, z: 0.33333334}
      - serializedVersion: 3
        time: 0.8666667
        value: {x: 0.18775636, y: -1.1186706, z: -0.17281444}
        inSlope: {x: 1.7325599, y: -0.65326256, z: 0.15435606}
        outSlope: {x: 1.4516078, y: -0.54733026, z: 0.12932637}
        tangentMode: 0
        weightedMode: 0
        inWeight: {x: 0.33333334, y: 0.33333334, z: 0.33333334}
        outWeight: {x: 0.33333334, y: 0.33333334, z: 0.33333334}
      - serializedVersion: 3
        time: 0.9
        value: {x: 0.23614325, y: -1.1369148, z: -0.16850357}
        inSlope: {x: 1.4516078, y: -0.54733026, z: 0.12932637}
        outSlope: {x: 0.60873765, y: -0.22952479, z: 0.054233506}
        tangentMode: 0
        weightedMode: 0
        inWeight: {x: 0.33333334, y: 0.33333334, z: 0.33333334}
        outWeight: {x: 0.33333334, y: 0.33333334, z: 0.33333334}
      - serializedVersion: 3
        time: 0.93333334
        value: {x: 0.2564345, y: -1.1445657, z: -0.16669579}
        inSlope: {x: 0.60873765, y: -0.22952479, z: 0.054233506}
        outSlope: {x: 0.60873765, y: -0.22952479, z: 0.054233506}
        tangentMode: 0
        weightedMode: 0
        inWeight: {x: 0.33333334, y: 0.33333334, z: 0.33333334}
        outWeight: {x: 0.33333334, y: 0.33333334, z: 0.33333334}
      m_PreInfinity: 2
      m_PostInfinity: 2
      m_RotationOrder: 4
    path: Knife/Bone
  m_ScaleCurves:
  - curve:
      serializedVersion: 2
      m_Curve:
      - serializedVersion: 3
        time: 0
        value: {x: 1, y: 1, z: 1}
        inSlope: {x: 0, y: 0, z: 0}
        outSlope: {x: 0, y: 0, z: 0}
        tangentMode: 0
        weightedMode: 0
        inWeight: {x: 0.33333334, y: 0.33333334, z: 0.33333334}
        outWeight: {x: 0.33333334, y: 0.33333334, z: 0.33333334}
      - serializedVersion: 3
        time: 0.9333334
        value: {x: 1, y: 1, z: 1}
        inSlope: {x: 0, y: 0, z: 0}
        outSlope: {x: 0, y: 0, z: 0}
        tangentMode: 0
        weightedMode: 0
        inWeight: {x: 0.33333334, y: 0.33333334, z: 0.33333334}
        outWeight: {x: 0.33333334, y: 0.33333334, z: 0.33333334}
      m_PreInfinity: 2
      m_PostInfinity: 2
      m_RotationOrder: 4
    path: Knife
  - curve:
      serializedVersion: 2
      m_Curve:
      - serializedVersion: 3
        time: 0
        value: {x: 0.99999803, y: 1.0000001, z: 0.9999981}
        inSlope: {x: 0, y: 0, z: 0}
        outSlope: {x: 0, y: 0, z: 0}
        tangentMode: 0
        weightedMode: 0
        inWeight: {x: 0.33333334, y: 0.33333334, z: 0.33333334}
        outWeight: {x: 0.33333334, y: 0.33333334, z: 0.33333334}
      - serializedVersion: 3
        time: 0.9333334
        value: {x: 0.99999803, y: 1.0000001, z: 0.9999981}
        inSlope: {x: 0, y: 0, z: 0}
        outSlope: {x: 0, y: 0, z: 0}
        tangentMode: 0
        weightedMode: 0
        inWeight: {x: 0.33333334, y: 0.33333334, z: 0.33333334}
        outWeight: {x: 0.33333334, y: 0.33333334, z: 0.33333334}
      m_PreInfinity: 2
      m_PostInfinity: 2
      m_RotationOrder: 4
    path: Knife/Bone
  m_FloatCurves: []
  m_PPtrCurves: []
  m_SampleRate: 30
  m_WrapMode: 0
  m_Bounds:
    m_Center: {x: 0, y: 0, z: 0}
    m_Extent: {x: 0, y: 0, z: 0}
  m_ClipBindingConstant:
    genericBindings:
    - serializedVersion: 2
      path: 2569790769
      attribute: 1
      script: {fileID: 0}
      typeID: 4
      customType: 0
      isPPtrCurve: 0
    - serializedVersion: 2
      path: 2569790769
      attribute: 2
      script: {fileID: 0}
      typeID: 4
      customType: 0
      isPPtrCurve: 0
    - serializedVersion: 2
      path: 2072098604
      attribute: 1
      script: {fileID: 0}
      typeID: 4
      customType: 0
      isPPtrCurve: 0
    - serializedVersion: 2
      path: 2072098604
      attribute: 2
      script: {fileID: 0}
      typeID: 4
      customType: 0
      isPPtrCurve: 0
    - serializedVersion: 2
      path: 2072098604
      attribute: 3
      script: {fileID: 0}
      typeID: 4
      customType: 0
      isPPtrCurve: 0
    - serializedVersion: 2
      path: 2569790769
      attribute: 3
      script: {fileID: 0}
      typeID: 4
      customType: 0
      isPPtrCurve: 0
    pptrCurveMapping: []
  m_AnimationClipSettings:
    serializedVersion: 2
    m_AdditiveReferencePoseClip: {fileID: 0}
    m_AdditiveReferencePoseTime: 0
    m_StartTime: 0
    m_StopTime: 0.9333334
    m_OrientationOffsetY: 0
    m_Level: 0
    m_CycleOffset: 0
    m_HasAdditiveReferencePose: 0
    m_LoopTime: 0
    m_LoopBlend: 0
    m_LoopBlendOrientation: 0
    m_LoopBlendPositionY: 0
    m_LoopBlendPositionXZ: 0
    m_KeepOriginalOrientation: 0
    m_KeepOriginalPositionY: 1
    m_KeepOriginalPositionXZ: 0
    m_HeightFromFeet: 0
    m_Mirror: 0
  m_EditorCurves: []
  m_EulerEditorCurves: []
  m_HasGenericRootTransform: 0
  m_HasMotionFloatCurves: 0
  m_Events: []
